{    
   "_pagination": {
        "current_page": 1,
        "per_page": 10,
        "total_count": 191,
        "total_pages": 20
    },
    "records": [
        {
            "_id": "5b01a447c6914f0014cc9a30",
            "text": "The special sensory organ called the Jacobson's organ allows a cat to have 14 times the sense of smell of a human. It consists of two fluid-filled sacs that connect to the cat's nasal cavity and is located on the roof of their mouth behind their teeth.",
            "type": "cat",
            "upvotes": 4,
            "user": {
                "_id": "5a9ac18c7478810ea6c06381",
                "name": {
                    "first": "Alex",
                    "last": "Wohlbruck"
                }
            },
            "userUpvoted": null
        },
        {
            "_id": "5b1b4055841d9700146158d3",
            "text": "Scottish sailer Alexander Selkirk once survived for 4 years on a deserted island thanks to feral cats that protected him from large rats during the night.",
            "type": "cat",
            "upvotes": 4,
            "user": {
                "_id": "5a9ac18c7478810ea6c06381",
                "name": {
                    "first": "Alex",
                    "last": "Wohlbruck"
                }
            },
            "userUpvoted": null
        },
        {
            "_id": "5a4d76916ef087002174c28b",
            "text": "A cat’s nose pad is ridged with a unique pattern, just like the fingerprint of a human.",
            "type": "cat",
            "upvotes": 4,
            "user": {
                "_id": "5a9ac18c7478810ea6c06381",
                "name": {
                    "first": "Alex",
                    "last": "Wohlbruck"
                }
            },
            "userUpvoted": null
        },
        {
            "_id": "58e009790aac31001185ed14",
            "text": "The technical term for \"hairball\" is \"bezoar.\"",
            "type": "cat",
            "upvotes": 4,
            "user": {
                "_id": "58e007480aac31001185ecef",
                "name": {
                    "first": "Kasimir",
                    "last": "Schulz"
                }
            },
            "userUpvoted": null
        },
        {
            "_id": "58e00a120aac31001185ed17",
            "text": "A cat's brain is 90% similar to a human's — more similar than to a dog's.",
            "type": "cat",
            "upvotes": 4,
            "user": {
                "_id": "58e007480aac31001185ecef",
                "name": {
                    "first": "Kasimir",
                    "last": "Schulz"
                }
            },
            "userUpvoted": null
        },
        {
            "_id": "5974fb4dfedacb0020b5b4cc",
            "text": "Cats can survive falls from up to 65 feet or more.",
            "type": "cat",
            "upvotes": 4,
            "user": {
                "_id": "5a9ac18c7478810ea6c06381",
                "name": {
                    "first": "Alex",
                    "last": "Wohlbruck"
                }
            },
            "userUpvoted": null
        },
        {
            "_id": "5b1b4014841d9700146158d0",
            "text": "In 1879, Belgium unsuccessfully tried to use cats to deliver mail.",
            "type": "cat",
            "upvotes": 4,
            "user": {
                "_id": "5a9ac18c7478810ea6c06381",
                "name": {
                    "first": "Alex",
                    "last": "Wohlbruck"
                }
            },
            "userUpvoted": null
        },
        {
            "_id": "590c752b5363e000200d5141",
            "text": "Kangaroos can't hop backwards",
            "type": "cat",
            "upvotes": 3,
            "user": {
                "_id": "590c74045363e000200d5140",
                "name": {
                    "first": "Hampton",
                    "last": "McGrath"
                }
            },
            "userUpvoted": null
        },
        {
            "_id": "5b3bd7d24cf4e10014bfd199",
            "text": "The myth that a cat has nine lives comes from their ability to jump and land from high places. The number 9 is believed by some to originate from William Shakespeare's Romeo and Juliet: \"A cat has nine lives. For three he plays, for three he strays, and for the last three he stays.\"",
            "type": "cat",
            "upvotes": 3,
            "user": {
                "_id": "5a9ac18c7478810ea6c06381",
                "name": {
                    "first": "Alex",
                    "last": "Wohlbruck"
                }
            },
            "userUpvoted": null
        },
        {
            "_id": "5b453e380fd3a600147f32f3",
            "text": "Exposure to UV light with hairless or partially-hairless cats can result in sunburn, even during cloudy or shady conditions. If your cat risks overexposure, consider applying sunscreen daily.",
            "type": "cat",
            "upvotes": 3,
            "user": {
                "_id": "5a9ac18c7478810ea6c06381",
                "name": {
                    "first": "Alex",
                    "last": "Wohlbruck"
                }
            },
            "userUpvoted": null
        }
    ]
}

